material Chessboard/Board
{
  receive_shadows off
  technique
  {
    pass
    {
      texture_unit
      {
        texture chessboardfinal.jpg
        filtering anistropic
        max_anisotropy 16
      }
      
    }
  }
}
